
    2019-07-19 12:25:42.839 

 
 ======================================================================
                                 
                 .----.   @   @  
                / .-"-.`.  \v/   
                | | '\ \ \_/ )   
              ,-\ `-.' /.'  /    
            '---`----'----'      
                                 
   SNAIL - the slow and inefficient QM program -
 ======================================================================

   Hostname: vejle

 ----------------------------------------------------------------------

    +----------------------------------------+
     Geometrical information on the molecule
    +----------------------------------------+

     internal coordinates: 

     O     0    0.0000   0    0.0000   0    0.0000
     H     1    1.8373   0    0.0000   0    0.0000
     H     1    1.8372   2  104.3576   0    0.0000

       Point group symmetry : cs 

 ----------------------------------------------------------------------
     Starting restricted Hartree-Fock calculcation

                    Calculation on Water                                                            

                    Number of atoms:    3
                 Charge of molecule:    0
            Number of occ. orbitals:    5

                    Basis set information:

     atom    basis       contr.   prim.
     ------------------------------------------------------------------
     o     def2-SVP       15       25      [3s2p1d|7s4p1d]
     h     def2-SVP        5        7      [2s1p|4s1p]
     h     def2-SVP        5        7      [2s1p|4s1p]
     ------------------------------------------------------------------
     total                25       39

     Integral neglect threshold:   1.00E-08

 ----------------------------------------------------------------------

     Allocated      5.36   MB for int. evaluation

   Profiling:
     R(t,u,v) CPU-time (sec)    :       0.00
     F(t,u,v) CPU-time (sec)    :       0.00
     Cont. E1 CPU-time (sec)    :       0.00
     Cont. Pr CPU-time (sec)    :       0.00
     Cont. E2 CPU-time (sec)    :       0.00

     CPU-time, WALL-time for 1-el Ints (sec):      0.01      0.01
     CPU-time, WALL-time for 2-el Ints (sec):      0.04      0.04

     Screening ratio (%)    0.00

     Iter:            Energy            Delta-E      Damp
     -------------------------------------------------------
        1      -74.2366744629 Eh    -74.2366744629   0.850

   Start saving densities for DIIS

        2      -75.4461964912 Eh     -1.2095220283   0.800

   Start DIIS

        3      -75.6914423212 Eh     -0.2452458300   0.750
        4      -75.8742167189 Eh     -0.1827743977   0.700
        5      -75.9382512827 Eh     -0.0640345638   0.650
        6      -75.9560017748 Eh     -0.0177504921   0.600
        7      -75.9599029945 Eh     -0.0039012197   0.550
        8      -75.9606966438 Eh     -0.0007936492   0.500
        9      -75.9609085445 Eh     -0.0002119008   0.450
       10      -75.9609862021 Eh     -0.0000776576   0.400
       11      -75.9610159822 Eh     -0.0000297801   0.400
       12      -75.9610260815 Eh     -0.0000100993   0.400
       13      -75.9610296651 Eh     -0.0000035836   0.400

     Final energy:   -75.9610296651 Eh

 ----------------------------------------------------------------------
      converged in 13 cycles
 ----------------------------------------------------------------------

   +---------------------------------------------------+
   +                                                   +
   + RHF energy:                   -75.9610296651 Eh   +
   + Potential energy:            -151.4372643024 Eh   +
   + Kinetic energy:                75.4762346373 Eh   +
   + Virial Theorem:                 1.9936178455      +
   +                                                   +
   +---------------------------------------------------+

                   nuc.         el.       total
     Dipole X: -0.00000000  0.66961360  0.66961360
     Dipole Y:  0.00000000 -0.00000000 -0.00000000
     Dipole Z:  0.00000000  0.51843275  0.51843275

     |dipole|    0.84684998  au    2.15233714  debye

 ----------------------------------------------------------------------

               Starting Mulliken population analysis

 ----------------------------------------------------------------------

  number of electrons MPA: 10.00000000

    1  O    7.18895330
    2  H    0.18179143
    3  H    0.92905672

 ----------------------------------------------------------------------

               Starting Loewdin population analysis

 ----------------------------------------------------------------------

  number of electrons loewdin: 10.00000000

    1  O    6.68294552
    2  H    0.14347377
    3  H    0.85076212

   Profiling:
     Fock CPU-time (sec)     :       0.00
     Obas CPU-time (sec)     :       0.00
     Diag CPU-time (sec)     :       0.00
     Dens CPU-time (sec)     :       0.00

 ----------------------------------------------------------------------

               Starting the TDHF calculation

 ----------------------------------------------------------------------

     Allocated      5.36   MB for int. evaluation
     Start calculation of AO-Integrals...

   Profiling:
     R(t,u,v) CPU-time (sec)    :       0.00
     F(t,u,v) CPU-time (sec)    :       0.00
     Cont. E1 CPU-time (sec)    :       0.00
     Cont. Pr CPU-time (sec)    :       0.00
     Cont. E2 CPU-time (sec)    :       0.00
     CPU-time for 2-el Ints (sec):      0.04

     cycles for convergence:  24

     Success: davidson method converged
     Size of reduced space:  94

   State:    1   energy  0.332874694566
   ----------------------------------------------
        5  ->   6   c = -0.983848179421
        5  ->   9   c =  0.154121528536
        5  ->  13   c =  0.079025162501

   State:    2   energy  0.396532957984
   ----------------------------------------------
        5  ->   7   c =  0.969411531391
        5  ->   8   c = -0.206112028424
        5  ->  12   c = -0.121897460603

   State:    3   energy  0.426723042530
   ----------------------------------------------
        3  ->   7   c =  0.060812458610
        4  ->   6   c =  0.987561203445
        4  ->   9   c = -0.122135658671
        4  ->  13   c = -0.057937097102

   State:    4   energy  0.489996661690
   ----------------------------------------------
        3  ->   6   c =  0.063613086783
        4  ->   7   c =  0.977357881227
        4  ->   8   c = -0.153184432984
        4  ->  12   c = -0.115593270564

   State:    5   energy  0.541574183655
   ----------------------------------------------
        3  ->   6   c =  0.988276975716
        3  ->   9   c = -0.118214818353
        3  ->  13   c = -0.065365916698

 ----------------------------------------------------------------------

            Starting the RI-MP2 calculation

 ----------------------------------------------------------------------

     Allocated     97.55   MB for int. evaluation
     CPU-time for     (PQ) (sec):      0.00

     Allocated     97.81   MB for int. evaluation
     CPU-time for   (Q|mn) (sec):      0.02

     Transforming to MO basis
     CPU-time traf. (Q|ai) (sec):      0.00

   +---------------------------------------------------+
   +                                                   +
   + RHF energy:                   -75.9610296651 Eh   +
   + Final MP2 energy:             -76.1705998993 Eh   +
   + MP2 correlation energy:        -0.2095702342 Eh   +
   +                                                   +
   + Final SCS-MP2 energy:         -76.1671898079 Eh   +
   + SCS-MP2 correlation energy:    -0.2061601427 Eh   +
   +                                                   +
   + E(S)  =   -0.1311246102  E(T)  =   -0.0784456240  +
   + E(OS) =   -0.1572731515  E(SS) =   -0.0522970827  +
   +                                                   +
   +---------------------------------------------------+

   Profiling:
     Total CPU-time (sec)    :       0.15

     Module        CPU-time   WALL-time 
                     (sec)      (sec)   
     -----------------------------------
     all         :      0.15      0.15
     SCF         :      0.05      0.05
     oneint      :      0.01      0.01
     twoint      :      0.04      0.04
     CIS         :      0.08      0.08
     RI-MP2      :      0.02      0.02

 ----------------------------------------------------------------------
     Total  CPU-time  :   0.15 seconds
     Total WALL-time  :   0.15 seconds
 ----------------------------------------------------------------------

 *** Snail : ended properly ***


    2019-07-19 12:25:42.991 

