 operating system is UNIX !
 hostname is         visby

 data group $actual step is not empty 
 due to the abend of escf


 escf (visby) : TURBOMOLE V6.5( 18161 ) 13 Mar 2013 at 10:19:07
 Copyright (C) 2013 TURBOMOLE GmbH, Karlsruhe


    2018-09-26 20:02:27.542 




                                e s c f

                       quantum chemistry group
                       university of karlsruhe
                               germany


          integral direct evaluation of 

                    * excitation energies and transition moments 
                    * dynamic response properties 
                    * stabilities



          references (see also programs dscf and ridft) 

          implementation and benchmarks (review) 
          F. Furche and D. Rappoport,  
          "Density functional methods for excited states: 
          equilibrium structure and electronic spectra",
          ch. III of "Computational Photochemistry", ed. by 
          M. Olivucci, vol. 16 of "Theoretical and Computational 
          Chemistry", Elsevier, Amsterdam, 2005.

          Current-density dependent meta-GGA Linear Response
          J. E. Bates and F. Furche, 
          J. Chem. Phys. 137 (2012), 164105.

          spin-flip method 
          M. Kuehn and F. Weigend, 
          Chem. Phys. Chem. 12 (2011), 3331.

          RI-J method 
          R. Bauernschmitt, M. Haeser, O. Treutler, and R. Ahlrichs,
          Chem. Phys. Lett. 264 (1997), 573.

          density functional implementation               
          R. Bauernschmitt and R. Ahlrichs,
          Chem. Phys. Lett. 256 (1996), 454.
          R. Bauernschmitt and R. Ahlrichs,
          J. Chem. Phys. 104 (1996), 9047.

          UHF extension (RPA and CIS)
          C. Ochsenfeld, J. Gauss, and R. Ahlrichs, 
          J. Chem. Phys. 103 (1995), 7401.

          integral direct algorithm                 
          H. Weiss, R. Ahlrichs, and M. Haeser, 
          J. Chem. Phys. 99 (1993), 1262.
                                     




              +--------------------------------------------------+
              | Atomic coordinate, charge and isotop information |
              +--------------------------------------------------+

                    atomic coordinates            atom    charge  isotop
          2.62524980    0.00000000    0.00000000    c      6.000     0
          1.31262490    2.27353302    0.00000000    c      6.000     0
         -1.31262490    2.27353302    0.00000000    c      6.000     0
         -2.62524980    0.00000000    0.00000000    c      6.000     0
         -1.31262490   -2.27353302    0.00000000    c      6.000     0
          1.31262490   -2.27353302    0.00000000    c      6.000     0
          4.66241737    0.00000000    0.00000000    h      1.000     0
          2.33120869    4.03777189    0.00000000    h      1.000     0
         -2.33120869    4.03777189    0.00000000    h      1.000     0
         -4.66241737    0.00000000    0.00000000    h      1.000     0
         -2.33120869   -4.03777189    0.00000000    h      1.000     0
          2.33120869   -4.03777189    0.00000000    h      1.000     0
 
       center of nuclear mass  :    0.00000000    0.00000000    0.00000000
       center of nuclear charge:    0.00000000    0.00000000    0.00000000

              +--------------------------------------------------+
              |               basis set information              |
              +--------------------------------------------------+

              we will work with the 1s 3p 6d 10f 15g ... basis set
              ...i.e. with Cartesian basis functions...

   type   atoms  prim   cont   basis
   ---------------------------------------------------------------------------
    c        6     25     15   def2-SVP   [3s2p1d|7s4p1d]
    h        6      7      5   def2-SVP   [2s1p|4s1p]
   ---------------------------------------------------------------------------
   total:   12    192    120
   ---------------------------------------------------------------------------

   total number of primitive shells          :   17
   total number of contracted shells         :   54
   total number of cartesian basis functions :  120
   total number of SCF-basis functions       :  120


 residuum convergence criterium   :  0.10E-04


 integral neglect threshold       :  0.28E-10
 integral storage threshold THIZE :  0.10E-04
 integral storage threshold THIME :         5

 CI SINGLES SINGLET-CALCULATION (TAMM-DANCOFF-APPROXIMATION)

 symmetry group of the molecule :   c1 

 the group has the following generators :
   c1(z)

    1 symmetry operations found

 there are 1 real representations :   a   

 maximum number of shells which are related by symmetry :  1

 IRREPs of excited states :   a   
 

 determining totally symmetric integral contributions 
    - equivalent to irreducible tensor elements - 
 which can be formed within each triple of representations :

             representation triple      contributions

              a     a     a               1

    mo occupation :
   irrep   mo's   occupied
    a      120       21
 
 number of basis functions   :          120
 number of occupied orbitals :           21
 

 biggest AO integral is expected to be     3.528781981
  MOs are in ASCII format !


 reading orbital data $scfmo  from file mos . 

 orbital characterization : scfconv=7
 
 all orbitals will be included in the transformation

 number of non-frozen orbitals          :   120
 number of non-frozen occupied orbitals :    21



 dimension of super-tensorspace: 1

          IRREP   tensor space dimension   number of roots

           a              2079                  10

 maximum number of Davidson iterations set to   25


 machine precision: 2.22D-16


 logfile ciss_a    exists already

 iterations from previous run will be continued


                       Block Davidson iteration


 total number of roots to be determined:  10


 maximum core memory set to   500 MB,
 corresponding to     4425 vectors in CAO basis


 maximum number of simultaneously treated vectors (including degeneracy):  10


 Iteration IRREP Converged      Max. Euclidean
                 roots          residual norm

    1       a        0        1.806739944117686D-01
 
    2       a        0        3.254622812888223D-02
 
    3       a        0        7.042711361922872D-03
 
    4       a        0        1.322247195603876D-03
 
    5       a        0        1.865492365185331D-04
 
    6       a        3        2.154861051745421D-05
 
    7       a       10        8.187347420696878D-06
 

 converged!

 Eigenpairs written on logfile ciss_a   



 IRREP   Vector     Eigenvalue           Euclidean residual norm

  a         1    2.303937254707058D-01    2.965629998437835D-06
            2    2.369033787228415D-01    8.187347420696878D-06
            3    3.111089209206702D-01    2.807198764245965D-06
            4    3.111089209241927D-01    2.807196652619850D-06
            5    3.224865236884102D-01    7.653056155918286D-07
            6    3.224865237795628D-01    7.653059455168481D-07
            7    3.460884291161244D-01    3.140417141060377D-06
            8    3.481655463326915D-01    1.772344344521683D-06
            9    3.567647091264703D-01    2.754778529002989D-06
           10    3.567647091756608D-01    2.754781893976525D-06
 




                    Selection rules for point group c1  


 Subduction with respect to c1  :

    Polar vector representation: a                           

    Axial vector representation: a                           

    Symmetric second rank tensor representation: a                           




                            Ground state


 Total energy:                           -230.5542657202000    

 Charge:

               elec          nuc         total

           -42.000000    42.000000     0.000000


 Electric dipole moment:

               elec          nuc         total   

    x       -0.000000    -0.000000    -0.000000    Norm:              0.000000
    y       -0.000000     0.000000    -0.000000
    z        0.000000     0.000000     0.000000    Norm / debye:      0.000000


 Electric quadrupole moment:

               elec          nuc         total   

   xx     -213.043925   189.269264   -23.774660
   yy     -213.043925   189.269264   -23.774660    1/3*trace:       -25.822401
   zz      -29.917883     0.000000   -29.917883
   xy        0.000000     0.000000     0.000000
   xz        0.000000     0.000000     0.000000    Anisotropy:        6.143223
   yz        0.000000     0.000000     0.000000



 ==============================================================================

                              I R R E P   a   

 ==============================================================================


 Excitation is electric dipole allowed

 Excitation is magnetic dipole allowed

 Excitation is electric quadrupole allowed




                         1 singlet a excitation


 Total energy:                           -230.3238719947293    

 Excitation energy:                      0.2303937254707058    

 Excitation energy / eV:                  6.269334938865596    

 Excitation energy / nm:                  197.7629927503964    

 Excitation energy / cm^(-1):             50565.57781328034    


 Oscillator strength:

    velocity representation:             0.3795996959521920E-18

    length representation:               0.2493936157292734E-17

    mixed representation:                0.9729837615338426E-18


 Rotatory strength:

    velocity representation:            -0.1821664062809592E-25

    velocity rep. / 10^(-40)erg*cm^3:   -0.1176882723316771E-20

    length representation:              -0.4669274573939105E-25

    length rep. / 10^(-40)erg*cm^3:     -0.3016576265997071E-20


 Dominant contributions:

    occ. orbital  energy / eV   virt. orbital  energy / eV   |coeff.|^2*100
      21 a          -9.18          22 a           3.69           49.8
      20 a          -9.18          23 a           3.69           49.8
 

 Change of electron number:

             0.000000


 Electric transition dipole moment (velocity rep.):

    x        0.000000        Norm:                  0.000000
    y        0.000000
    z        0.000000        Norm / debye:          0.000000


 Electric transition dipole moment (length rep.):

    x        0.000000        Norm:                  0.000000
    y        0.000000
    z       -0.000000        Norm / debye:          0.000000


 Magnetic transition dipole moment / i:

    x        0.000000        Norm:                  0.000000
    y       -0.000000
    z        0.000000        Norm / Bohr mag.:      0.000000


 Electric quadrupole transition moment:

   xx       -0.000000
   yy        0.000000        1/3*trace:             0.000000
   zz       -0.000000
   xy       -0.000000
   xz        0.000000        Anisotropy:            0.000000
   yz        0.000000




                         2 singlet a excitation


 Total energy:                           -230.3173623414771    

 Excitation energy:                      0.2369033787228415    

 Excitation energy / eV:                  6.446471692438789    

 Excitation energy / nm:                  192.3288426937362    

 Excitation energy / cm^(-1):             51994.28155677788    


 Oscillator strength:

    velocity representation:             0.1702255215991241E-18

    length representation:               0.2380156727954697E-18

    mixed representation:                0.2012867154757672E-18


 Rotatory strength:

    velocity representation:             0.4119538002664391E-25

    velocity rep. / 10^(-40)erg*cm^3:    0.2661419963407028E-20

    length representation:               0.4870904768307250E-25

    length rep. / 10^(-40)erg*cm^3:      0.3146839082888176E-20


 Dominant contributions:

    occ. orbital  energy / eV   virt. orbital  energy / eV   |coeff.|^2*100
      20 a          -9.18          22 a           3.69           48.1
      21 a          -9.18          23 a           3.69           48.1
 

 Change of electron number:

             0.000000


 Electric transition dipole moment (velocity rep.):

    x        0.000000        Norm:                  0.000000
    y       -0.000000
    z        0.000000        Norm / debye:          0.000000


 Electric transition dipole moment (length rep.):

    x        0.000000        Norm:                  0.000000
    y       -0.000000
    z        0.000000        Norm / debye:          0.000000


 Magnetic transition dipole moment / i:

    x        0.000000        Norm:                  0.000000
    y        0.000000
    z       -0.000000        Norm / Bohr mag.:      0.000000


 Electric quadrupole transition moment:

   xx        0.000000
   yy       -0.000000        1/3*trace:             0.000000
   zz        0.000000
   xy        0.000000
   xz       -0.000000        Anisotropy:            0.000000
   yz       -0.000000




                         3 singlet a excitation


 Total energy:                           -230.2431567992793    

 Excitation energy:                      0.3111089209206702    

 Excitation energy / eV:                  8.465708099193559    

 Excitation energy / nm:                  146.4546645758776    

 Excitation energy / cm^(-1):             68280.51552653960    


 Oscillator strength:

    velocity representation:             0.1055075564793684    

    length representation:                1.162466114514200    

    mixed representation:                0.3502127342522812    


 Rotatory strength:

    velocity representation:             0.4585215619149683E-16

    velocity rep. / 10^(-40)erg*cm^3:    0.2962270132582352E-11

    length representation:               0.1521977148092883E-15

    length rep. / 10^(-40)erg*cm^3:      0.9832705422704870E-11


 Dominant contributions:

    occ. orbital  energy / eV   virt. orbital  energy / eV   |coeff.|^2*100
      20 a          -9.18          23 a           3.69           46.8
      21 a          -9.18          22 a           3.69           46.8
 

 Change of electron number:

            -0.000000


 Electric transition dipole moment (velocity rep.):

    x        0.001226        Norm:                  0.713233
    y       -0.713232
    z       -0.000000        Norm / debye:          1.812870


 Electric transition dipole moment (length rep.):

    x        0.004071        Norm:                  2.367443
    y       -2.367440
    z       -0.000000        Norm / debye:          6.017486


 Magnetic transition dipole moment / i:

    x       -0.000000        Norm:                  0.000000
    y       -0.000000
    z       -0.000000        Norm / Bohr mag.:      0.000000


 Electric quadrupole transition moment:

   xx       -0.000000
   yy        0.000000        1/3*trace:            -0.000000
   zz       -0.000000
   xy       -0.000000
   xz        0.000000        Anisotropy:            0.000000
   yz       -0.000000




                         4 singlet a excitation


 Total energy:                           -230.2431567992758    

 Excitation energy:                      0.3111089209241927    

 Excitation energy / eV:                  8.465708099289412    

 Excitation energy / nm:                  146.4546645742194    

 Excitation energy / cm^(-1):             68280.51552731270    


 Oscillator strength:

    velocity representation:             0.1055075577825326    

    length representation:                1.162466115772793    

    mixed representation:                0.3502127366046732    


 Rotatory strength:

    velocity representation:             0.4601001639881069E-16

    velocity rep. / 10^(-40)erg*cm^3:    0.2972468662293716E-11

    length representation:               0.1527217015800163E-15

    length rep. / 10^(-40)erg*cm^3:      0.9866557491827057E-11


 Dominant contributions:

    occ. orbital  energy / eV   virt. orbital  energy / eV   |coeff.|^2*100
      21 a          -9.18          23 a           3.69           46.8
      20 a          -9.18          22 a           3.69           46.8
 

 Change of electron number:

             0.000000


 Electric transition dipole moment (velocity rep.):

    x       -0.713232        Norm:                  0.713233
    y       -0.001226
    z        0.000000        Norm / debye:          1.812870


 Electric transition dipole moment (length rep.):

    x       -2.367440        Norm:                  2.367443
    y       -0.004071
    z       -0.000000        Norm / debye:          6.017486


 Magnetic transition dipole moment / i:

    x       -0.000000        Norm:                  0.000000
    y        0.000000
    z       -0.000000        Norm / Bohr mag.:      0.000000


 Electric quadrupole transition moment:

   xx       -0.000000
   yy        0.000000        1/3*trace:            -0.000000
   zz       -0.000000
   xy        0.000000
   xz       -0.000000        Anisotropy:            0.000000
   yz       -0.000000




                         5 singlet a excitation


 Total energy:                           -230.2317791965116    

 Excitation energy:                      0.3224865236884102    

 Excitation energy / eV:                  8.775308555571421    

 Excitation energy / nm:                  141.2876176618896    

 Excitation energy / cm^(-1):             70777.61069224065    


 Oscillator strength:

    velocity representation:             0.2129759768383247E-26

    length representation:               0.6719465075419490E-26

    mixed representation:                0.3535768762004731E-26


 Rotatory strength:

    velocity representation:            -0.1880601340643946E-16

    velocity rep. / 10^(-40)erg*cm^3:   -0.1214959043456498E-11

    length representation:              -0.1195006669502614E-15

    length rep. / 10^(-40)erg*cm^3:     -0.7720318648746067E-11


 Dominant contributions:

    occ. orbital  energy / eV   virt. orbital  energy / eV   |coeff.|^2*100
      20 a          -9.18          24 a           4.99           92.0
 

 Change of electron number:

             0.000000


 Electric transition dipole moment (velocity rep.):

    x       -0.000000        Norm:                  0.000000
    y        0.000000
    z        0.000000        Norm / debye:          0.000000


 Electric transition dipole moment (length rep.):

    x       -0.000000        Norm:                  0.000000
    y        0.000000
    z        0.000000        Norm / debye:          0.000000


 Magnetic transition dipole moment / i:

    x        0.000000        Norm:                  0.001679
    y       -0.001679
    z        0.000000        Norm / Bohr mag.:      0.460245


 Electric quadrupole transition moment:

   xx        0.000000
   yy        0.000000        1/3*trace:             0.000000
   zz       -0.000000
   xy        0.000000
   xz        0.759225        Anisotropy:            1.315016
   yz        0.000005




                         6 singlet a excitation


 Total energy:                           -230.2317791964204    

 Excitation energy:                      0.3224865237795628    

 Excitation energy / eV:                  8.775308558051808    

 Excitation energy / nm:                  141.2876176219539    

 Excitation energy / cm^(-1):             70777.61071224631    


 Oscillator strength:

    velocity representation:             0.2499800498688645E-27

    length representation:               0.1152768173960192E-26

    mixed representation:                0.3218074440185075E-27


 Rotatory strength:

    velocity representation:            -0.3982870228638232E-16

    velocity rep. / 10^(-40)erg*cm^3:   -0.2573125998910919E-11

    length representation:              -0.1079223800317732E-15

    length rep. / 10^(-40)erg*cm^3:     -0.6972305548078247E-11


 Dominant contributions:

    occ. orbital  energy / eV   virt. orbital  energy / eV   |coeff.|^2*100
      21 a          -9.18          24 a           4.99           92.0
 

 Change of electron number:

             0.000000


 Electric transition dipole moment (velocity rep.):

    x       -0.000000        Norm:                  0.000000
    y       -0.000000
    z       -0.000000        Norm / debye:          0.000000


 Electric transition dipole moment (length rep.):

    x       -0.000000        Norm:                  0.000000
    y       -0.000000
    z        0.000000        Norm / debye:          0.000000


 Magnetic transition dipole moment / i:

    x        0.001679        Norm:                  0.001679
    y        0.000000
    z        0.000000        Norm / Bohr mag.:      0.460245


 Electric quadrupole transition moment:

   xx        0.000000
   yy        0.000000        1/3*trace:             0.000000
   zz        0.000000
   xy        0.000000
   xz       -0.000005        Anisotropy:            1.315016
   yz        0.759225




                         7 singlet a excitation


 Total energy:                           -230.2081772910839    

 Excitation energy:                      0.3460884291161244    

 Excitation energy / eV:                  9.417549354531824    

 Excitation energy / nm:                  131.6523432359883    

 Excitation energy / cm^(-1):             75957.63016980453    


 Oscillator strength:

    velocity representation:             0.3156047679721789E-01

    length representation:               0.1885450587565470E-01

    mixed representation:                0.2439379419466370E-01


 Rotatory strength:

    velocity representation:             0.1249154996598899E-17

    velocity rep. / 10^(-40)erg*cm^3:    0.8070142921822172E-13

    length representation:               0.9654996691121438E-18

    length rep. / 10^(-40)erg*cm^3:      0.6237592886328518E-13


 Dominant contributions:

    occ. orbital  energy / eV   virt. orbital  energy / eV   |coeff.|^2*100
      21 a          -9.18          25 a           6.05           40.4
      20 a          -9.18          26 a           6.05           40.4
      17 a         -13.70          24 a           4.99           10.7
 

 Change of electron number:

             0.000000


 Electric transition dipole moment (velocity rep.):

    x       -0.000000        Norm:                  0.369849
    y        0.000000
    z       -0.369849        Norm / debye:          0.940068


 Electric transition dipole moment (length rep.):

    x        0.000000        Norm:                  0.285864
    y        0.000000
    z       -0.285864        Norm / debye:          0.726600


 Magnetic transition dipole moment / i:

    x        0.000000        Norm:                  0.000000
    y        0.000000
    z       -0.000000        Norm / Bohr mag.:      0.000000


 Electric quadrupole transition moment:

   xx        0.000000
   yy       -0.000000        1/3*trace:             0.000000
   zz        0.000000
   xy        0.000000
   xz       -0.000000        Anisotropy:            0.000000
   yz       -0.000000




                         8 singlet a excitation


 Total energy:                           -230.2061001738673    

 Excitation energy:                      0.3481655463326915    

 Excitation energy / eV:                  9.474070614003358    

 Excitation energy / nm:                  130.8669198889131    

 Excitation energy / cm^(-1):             76413.50470383120    


 Oscillator strength:

    velocity representation:             0.4024065960886944E-26

    length representation:               0.7564443194596857E-28

    mixed representation:                0.3434249699057872E-27


 Rotatory strength:

    velocity representation:             0.3888698526971957E-30

    velocity rep. / 10^(-40)erg*cm^3:    0.2512286543942781E-25

    length representation:               0.1083568863220528E-29

    length rep. / 10^(-40)erg*cm^3:      0.7000376747189122E-25


 Dominant contributions:

    occ. orbital  energy / eV   virt. orbital  energy / eV   |coeff.|^2*100
      19 a         -13.50          22 a           3.69           45.1
      18 a         -13.50          23 a           3.69           45.1
 

 Change of electron number:

             0.000000


 Electric transition dipole moment (velocity rep.):

    x       -0.000000        Norm:                  0.000000
    y        0.000000
    z       -0.000000        Norm / debye:          0.000000


 Electric transition dipole moment (length rep.):

    x        0.000000        Norm:                  0.000000
    y        0.000000
    z       -0.000000        Norm / debye:          0.000000


 Magnetic transition dipole moment / i:

    x       -0.000000        Norm:                  0.000000
    y        0.000000
    z        0.000000        Norm / Bohr mag.:      0.000000


 Electric quadrupole transition moment:

   xx        0.000000
   yy        0.000000        1/3*trace:             0.000000
   zz        0.000000
   xy        0.000000
   xz       -0.000000        Anisotropy:            0.000000
   yz       -0.000000




                         9 singlet a excitation


 Total energy:                           -230.1975010110735    

 Excitation energy:                      0.3567647091264703    

 Excitation energy / eV:                  9.708065839515198    

 Excitation energy / nm:                  127.7126114058780    

 Excitation energy / cm^(-1):             78300.80278232499    


 Oscillator strength:

    velocity representation:             0.3822293363426491E-25

    length representation:               0.1129440350884008E-25

    mixed representation:                0.2071953182576733E-25


 Rotatory strength:

    velocity representation:             0.3657145826067694E-29

    velocity rep. / 10^(-40)erg*cm^3:    0.2362692346639869E-24

    length representation:              -0.1754589092779821E-28

    length rep. / 10^(-40)erg*cm^3:     -0.1133549062074491E-23


 Dominant contributions:

    occ. orbital  energy / eV   virt. orbital  energy / eV   |coeff.|^2*100
      18 a         -13.50          23 a           3.69           44.8
      19 a         -13.50          22 a           3.69           44.8
      15 a         -16.05          30 a           9.55            3.2
 

 Change of electron number:

             0.000000


 Electric transition dipole moment (velocity rep.):

    x       -0.000000        Norm:                  0.000000
    y       -0.000000
    z        0.000000        Norm / debye:          0.000000


 Electric transition dipole moment (length rep.):

    x       -0.000000        Norm:                  0.000000
    y        0.000000
    z        0.000000        Norm / debye:          0.000000


 Magnetic transition dipole moment / i:

    x       -0.000000        Norm:                  0.000000
    y       -0.000000
    z        0.000000        Norm / Bohr mag.:      0.000000


 Electric quadrupole transition moment:

   xx       -0.000000
   yy        0.000000        1/3*trace:             0.000000
   zz        0.000000
   xy        0.000000
   xz        0.000000        Anisotropy:            0.000000
   yz        0.000000




                        10 singlet a excitation


 Total energy:                           -230.1975010110243    

 Excitation energy:                      0.3567647091756608    

 Excitation energy / eV:                  9.708065840853742    

 Excitation energy / nm:                  127.7126113882691    

 Excitation energy / cm^(-1):             78300.80279312107    


 Oscillator strength:

    velocity representation:             0.6329248508894999E-16

    length representation:               0.4635577280156414E-16

    mixed representation:                0.5416615233547202E-16


 Rotatory strength:

    velocity representation:            -0.5214155213399019E-24

    velocity rep. / 10^(-40)erg*cm^3:   -0.3368595402753349E-19

    length representation:              -0.4462334467442156E-24

    length rep. / 10^(-40)erg*cm^3:     -0.2882882990123819E-19


 Dominant contributions:

    occ. orbital  energy / eV   virt. orbital  energy / eV   |coeff.|^2*100
      18 a         -13.50          22 a           3.69           44.8
      19 a         -13.50          23 a           3.69           44.8
      16 a         -16.05          30 a           9.55            3.2
 

 Change of electron number:

            -0.000000


 Electric transition dipole moment (velocity rep.):

    x        0.000000        Norm:                  0.000000
    y        0.000000
    z        0.000000        Norm / debye:          0.000000


 Electric transition dipole moment (length rep.):

    x       -0.000000        Norm:                  0.000000
    y        0.000000
    z        0.000000        Norm / debye:          0.000000


 Magnetic transition dipole moment / i:

    x        0.000000        Norm:                  0.000000
    y       -0.000000
    z       -0.000000        Norm / Bohr mag.:      0.000000


 Electric quadrupole transition moment:

   xx       -0.000000
   yy       -0.000000        1/3*trace:            -0.000000
   zz       -0.000000
   xy        0.000000
   xz        0.000000        Anisotropy:            0.000000
   yz        0.000000


    ------------------------------------------------------------------------
         total  cpu-time :  19.08 seconds
         total wall-time :  19.09 seconds
    ------------------------------------------------------------------------


   ****  escf : all done  ****


    2018-09-26 20:02:46.625 

