 operating system is UNIX !
 hostname is         visby

 mpgrad (visby) : TURBOMOLE V6.5( 18161 ) 13 Mar 2013 at 10:19:07
 Copyright (C) 2013 TURBOMOLE GmbH, Karlsruhe


    2018-09-26 20:00:32.204 



                             m p g r a d - program

                  F.Haase & R.Ahlrichs (JCompChem 14(1993)907)
               restructured and UMP2 added: M.Kollwitz (1995/6)
                     parallel version: G.Corongiu (1997) 
            symmetry: M.Haeser,J.Almloef,M.Feyereisen (TCA 79(1991)115)
     energy: R.Ahlrichs,M.Baer,M.Haeser,H.Horn,C.Koelmel (CPL 162(1989)165)

                            quantum chemistry group
                             university  karlsruhe
                                   germany


  you specified           11  scratch files in the control file


              +--------------------------------------------------+
              | Atomic coordinate, charge and isotop information |
              +--------------------------------------------------+

                    atomic coordinates            atom    charge  isotop
          2.62524980    0.00000000    0.00000000    c      6.000     0
          1.31262490    2.27353302    0.00000000    c      6.000     0
         -1.31262490    2.27353302    0.00000000    c      6.000     0
         -2.62524980    0.00000000    0.00000000    c      6.000     0
         -1.31262490   -2.27353302    0.00000000    c      6.000     0
          1.31262490   -2.27353302    0.00000000    c      6.000     0
          4.66241737    0.00000000    0.00000000    h      1.000     0
          2.33120869    4.03777189    0.00000000    h      1.000     0
         -2.33120869    4.03777189    0.00000000    h      1.000     0
         -4.66241737    0.00000000    0.00000000    h      1.000     0
         -2.33120869   -4.03777189    0.00000000    h      1.000     0
          2.33120869   -4.03777189    0.00000000    h      1.000     0
 
       center of nuclear mass  :    0.00000000    0.00000000    0.00000000
       center of nuclear charge:    0.00000000    0.00000000    0.00000000

              +--------------------------------------------------+
              |               basis set information              |
              +--------------------------------------------------+

              we will work with the 1s 3p 6d 10f 15g ... basis set
              ...i.e. with Cartesian basis functions...

   type   atoms  prim   cont   basis
   ---------------------------------------------------------------------------
    c        6     25     15   def2-SVP   [3s2p1d|7s4p1d]
    h        6      7      5   def2-SVP   [2s1p|4s1p]
   ---------------------------------------------------------------------------
   total:   12    192    120
   ---------------------------------------------------------------------------

   total number of primitive shells          :   17
   total number of contracted shells         :   54
   total number of cartesian basis functions :  120
   total number of SCF-basis functions       :  120


 MAXIMUM CORE MEMORY WHICH CAN BE ALLOCATED DYNAMICALLY =  500 Mbytes
              ( or   65536000 double words )


 symmetry group of the molecule :   c1 

 the group has the following generators :
   c1(z)

    1 symmetry operations found

 there are 1 real representations :   a   

 maximum number of shells which are related by symmetry :  1


 determining totally symmetric integral contributions 
    - equivalent to irreducible tensor elements - 
 which can be formed within each quadruple of representations :

             representation quadruple      contributions

   1   1       a     a     a     a               1


 total number of totally symmetric contributions    :       1
 total number of non-equal integral types           :       1
 total number of non-zero  integral types           :       1
 t.number of mat.elements of symmetrizing projectors:       1
 total number of back-transformation matrix elements:       1

    mo occupation :
   irrep   mo's   occupied
    a      120       21
 
 number of basis functions   :          120
 number of occupied orbitals :           21
 
  MOs are in ASCII format !


 reading orbital data $scfmo  from file control . 

 orbital characterization : scfconv=7
 

         --------------------------------------------------------------
                   checking mo's by calculating trace(D*S)

              number of electrons : 
                 from trace(D*S)         :   42.000000000035
                 from occupation numbers :   42.000000000000

              molecular charge           :    0.000000000000
         --------------------------------------------------------------

 time elapsed for calculating density matrices :   0.000 sec
 
 all orbitals will be included in the transformation

 number of non-frozen orbitals          :   120
 number of non-frozen occupied orbitals :    21

 biggest AO integral is expected to be     3.528781981
 sqrt of biggest ao-integral is expected to be      1.8785053    

 number of basis function pairs which contribute 
 to half-transformed integrals is expected to be :      7178
  iloop=           1
 
            MULTIPLE PASS Statistics 
 ----------------------------------------------------
  pass       irrep     lambda      batch : MO  to  MO
 ----------------------------------------------------
   1       1  ->  1    1  -> 21             1  ->  21


 **************************************************************
 RESULTING NUMBER OF INTEGRAL AND DERIVATIVE EVALUATIONS   1
 **************************************************************
 
 
 -----------------------------------------------
            PASS :   1
 -----------------------------------------------

 record length scale factor =        8


 actual number of basis function pairs which contr. 
 to half-transformed integrals is                :      7028

 cpu for first half-transformation                          4.52 s

 cpu for second half-transformation                         0.92 s

 cpu for calculation of T2-amplitudes                       0.06 s

            Largest euclidian normes of T2 (for fixed ij)
            ---------------------------------------------
                [ i   j ]      norm[ T2(ij) ]
            ---------------------------------------------
                 21  20       0.13675743280646
                 21  21       0.10463752079951
                 20  20       0.10463752073618
                 21  18       0.08178342240979
                 20  19       0.08178342234022
 

            Largest T2 amplitudes 
            ---------------------------------------------
                [ i   j   a   b ]          T2(ij,ab)
            ---------------------------------------------
                 21  20  23  22       0.09765221826532
                 21  20  22  23       0.07699101662648
                 21  21  23  23       0.06906770653058
                 20  20  22  22       0.06906770652547
                 21  21  22  22       0.04840650491646
 

             *****************************************************
             *                                                   *
             *      SCF-energy   :    -230.55426572019999        *
             *      MP2-energy   :      -0.82490407521999        *
             *      total        :    -231.37916979541998        *
             *                                                   *
             *     (MP2-energy evaluated from T2 amplitudes)     *
             *                                                   *
             *****************************************************

 DUMMY pa_nb


    ------------------------------------------------------------------------
         total  cpu-time :   5.61 seconds
         total wall-time :   5.61 seconds
    ------------------------------------------------------------------------


   ****  mpgrad : all done  ****


    2018-09-26 20:00:37.754 

