
   OpenMP run-time library returned nthreads =  1
 operating system is UNIX !

 dscf (vejle) : TURBOMOLE rev. V7-4-initial-tag-715-g417a4f3 compiled 8 Jul 2019 at 10:34:19
 Copyright (C) 2019 TURBOMOLE GmbH, Karlsruhe


    2019-07-09 09:19:49.003 



                             d s c f - program

                   idea & directorship : reinhart ahlrichs
                   program development : marco haeser
                                         michael baer
                           dft version : oliver treutler


                          quantum chemistry group
                          universitaet  karlsruhe
                                  germany



   *-----------------------------------------------------------------------*
   |                     program will use  1 thread(s)                     |
   *-----------------------------------------------------------------------*


              +--------------------------------------------------+
              | Atomic coordinate, charge and isotop information |
              +--------------------------------------------------+

                    atomic coordinates            atom    charge  isotop
          2.62524980    0.00000000    0.00000000    c      6.000     0
          1.31262490    2.27353302    0.00000000    c      6.000     0
         -1.31262490    2.27353302    0.00000000    c      6.000     0
         -2.62524980    0.00000000    0.00000000    c      6.000     0
         -1.31262490   -2.27353302    0.00000000    c      6.000     0
          1.31262490   -2.27353302    0.00000000    c      6.000     0
          4.66241737    0.00000000    0.00000000    h      1.000     0
          2.33120869    4.03777189    0.00000000    h      1.000     0
         -2.33120869    4.03777189    0.00000000    h      1.000     0
         -4.66241737    0.00000000    0.00000000    h      1.000     0
         -2.33120869   -4.03777189    0.00000000    h      1.000     0
          2.33120869   -4.03777189    0.00000000    h      1.000     0
 
       center of nuclear mass  :    0.00000000    0.00000000    0.00000000
       center of nuclear charge:    0.00000000    0.00000000    0.00000000

              +--------------------------------------------------+
              |               basis set information              |
              +--------------------------------------------------+

              we will work with the 1s 3p 6d 10f 15g ... basis set
              ...i.e. with Cartesian basis functions...

   type   atoms  prim   cont   basis
   ---------------------------------------------------------------------------
    c        6     15      5   minix   [2s1p|6s3p]
    h        6      3      1   minix   [1s|3s]
   ---------------------------------------------------------------------------
   total:   12    108     36
   ---------------------------------------------------------------------------

   total number of primitive shells          :   12
   total number of contracted shells         :   24
   total number of cartesian basis functions :   36
   total number of SCF-basis functions       :   36


 integral neglect threshold       :  0.93E-10
 integral storage threshold THIZE :  0.10E-04
 integral storage threshold THIME :         5


 DENSITY CONVERGENCE CHECK SWITCHED ON !
 SCF CONVERGENCE IF RMS(delta[D]) <     0.1000000000E-06


 symmetry group of the molecule :   c1 

 the group has the following generators :
   c1(z)

    1 symmetry operations found

 there are 1 real representations :   a   

 maximum number of shells which are related by symmetry :  1


          ------------------------
          nuclear repulsion energy  :   204.360444203    
          ------------------------


         -----------------
         -S,T+V- integrals
         -----------------

 1e-integrals will be neglected if expon. factor < 0.928323E-11
 
   Difference densities algorithm switched on.
   The maximal number of linear combinations of
   difference densities is                    20 .

 DIIS switched on: error vector is FDS-SDF
 Max. Iterations for DIIS is     :   5
 DIIS matrix (see manual) 
    Scaling factor of diagonals  :  1.200
    threshold for scaling factor :  0.000

 scf convergence criterion : increment of total energy < .1000000D-06
                  and increment of one-electron energy < .1000000D-03

 MOs are in ASCII format !


    mo occupation :
   irrep   mo's   occupied
    a       36       21
 
 number of basis functions   :    36
 number of occupied orbitals :    21
 

 reading orbital data $scfmo  from file mos
 orbital characterization : expanded
 virtual MOs provided and orthogonalized by Cholesky decomposition

 automatic virtual orbital shift switched on 
      shift if e(lumo)-e(homo) < 0.10000000    


 DSCF restart information will be dumped onto file mos

 
                                              current damping :  0.300
 ITERATION  ENERGY          1e-ENERGY        2e-ENERGY     RMS[dD(SAO)]   TOL
   1  -228.93828681514    -710.44296859     277.14423758    0.000D+00 0.926D-10
          max. resid. norm for Fia-block=  2.626D-01 for orbital      5a         
          max. resid. fock norm         =  3.693D-01 for orbital     35a         
          Delta Eig. =    38.8167801805 eV 
 
                                              current damping :  0.250
 ITERATION  ENERGY          1e-ENERGY        2e-ENERGY     RMS[dD(SAO)]   TOL
   2  -229.09769714026    -711.89761801     278.43947667    0.160D-01 0.591D-10
          Norm of current diis error: 0.27772    
          max. resid. norm for Fia-block=  7.939D-02 for orbital      7a         
          max. resid. fock norm         =  9.951D-02 for orbital     25a         
          Delta Eig. =     8.4517080041 eV 
 
                                              current damping :  0.100
 ITERATION  ENERGY          1e-ENERGY        2e-ENERGY     RMS[dD(SAO)]   TOL
   3  -229.12157360872    -712.32297939     278.84096158    0.729D-02 0.452D-10
          Norm of current diis error: 0.72427E-01
          max. resid. norm for Fia-block=  2.462D-02 for orbital      7a         
          max. resid. fock norm         =  2.835D-02 for orbital     25a         
          Delta Eig. =     1.8538760888 eV 
 
                                              current damping :  0.100
 ITERATION  ENERGY          1e-ENERGY        2e-ENERGY     RMS[dD(SAO)]   TOL
   4  -229.12370553448    -712.43077583     278.94662609    0.265D-02 0.391D-10
          Norm of current diis error: 0.10747E-01
          max. resid. norm for Fia-block=  4.013D-03 for orbital      7a         
          max. resid. fock norm         =  4.467D-03 for orbital     25a         
          Delta Eig. =     0.1672037904 eV 
 
                                              current damping :  0.100
 ITERATION  ENERGY          1e-ENERGY        2e-ENERGY     RMS[dD(SAO)]   TOL
   5  -229.12377214565    -712.44401277     278.95979642    0.528D-03 0.361D-10
          Norm of current diis error: 0.17978E-02
          max. resid. norm for Fia-block=  6.358D-04 for orbital      7a         
          max. resid. fock norm         =  7.240D-04 for orbital     25a         
 mo-orthogonalization: Cholesky decomposition
          Delta Eig. =     0.0148040552 eV 
 
                                              current damping :  0.100
 ITERATION  ENERGY          1e-ENERGY        2e-ENERGY     RMS[dD(SAO)]   TOL
   6  -229.12377474919    -712.44581200     278.96159305    0.118D-03 0.344D-10
          Norm of current diis error: 0.31360E-03
          max. resid. norm for Fia-block=  1.314D-04 for orbital     11a         
          max. resid. fock norm         =  1.484D-04 for orbital     29a         
          Delta Eig. =     0.0013879204 eV 
 
                                              current damping :  0.100
 ITERATION  ENERGY          1e-ENERGY        2e-ENERGY     RMS[dD(SAO)]   TOL
   7  -229.12377484968    -712.44606320     278.96184414    0.257D-04 0.331D-10
          Norm of current diis error: 0.51361E-04
          max. resid. norm for Fia-block=  2.488D-05 for orbital     10a         
          max. resid. fock norm         =  2.858D-05 for orbital     29a         
          Delta Eig. =     0.0002446911 eV 
 
                                              current damping :  0.100
 ITERATION  ENERGY          1e-ENERGY        2e-ENERGY     RMS[dD(SAO)]   TOL
   8  -229.12377485288    -712.44610213     278.96188307    0.484D-05 0.320D-10
          Norm of current diis error: 0.75279E-05
          max. resid. norm for Fia-block=  3.938D-06 for orbital     10a         
          max. resid. fock norm         =  4.546D-06 for orbital     29a         
          Delta Eig. =     0.0000457396 eV 

 ENERGY & DENSITY CONVERGED !

 
                                              current damping :  0.100
 ITERATION  ENERGY          1e-ENERGY        2e-ENERGY     RMS[dD(SAO)]   TOL
   9  -229.12377485193    -712.44610770     278.96188864    0.765D-06 0.312D-10
          max. resid. norm for Fia-block=  4.309D-07 for orbital     10a         
          max. resid. fock norm         =  4.924D-07 for orbital     28a         

 convergence criteria satisfied after     9 iterations


                  ------------------------------------------ 
                 |  total energy      =   -229.12377485193  |
                  ------------------------------------------ 
                 :  kinetic energy    =    227.94996442471  :
                 :  potential energy  =   -457.07373927664  :
                 :  virial theorem    =      1.99487695929  :
                 :  wavefunction norm =      1.00000000000  :
                  .......................................... 


 orbitals $scfmo  will be written to file mos

    irrep                 17a         18a         19a         20a         21a   
 eigenvalues H         -0.52409    -0.48672    -0.48672    -0.35068    -0.35068
            eV         -14.2614    -13.2443    -13.2443     -9.5427     -9.5427
 occupation              2.0000      2.0000      2.0000      2.0000      2.0000

    irrep                 22a         23a         24a         25a         26a   
 eigenvalues H          0.18805     0.18805     0.43295     0.56733     0.64675
            eV           5.1172      5.1172     11.7812     15.4379     17.5990
 
 
 
 
 ==============================================================================
                           electrostatic moments
 ==============================================================================

 reference point for electrostatic moments:    0.00000   0.00000   0.00000

 
              nuc           elec       ->  total
 ------------------------------------------------------------------------------
                          charge      
 ------------------------------------------------------------------------------
          42.000000     -42.000000       0.000000
 
 ------------------------------------------------------------------------------
                       dipole moment  
 ------------------------------------------------------------------------------
   x      -0.000000      -0.000000      -0.000000
   y       0.000000      -0.000000      -0.000000
   z       0.000000       0.000000       0.000000
 
   | dipole moment | =     0.0000 a.u. =     0.0000 debye 
 
 ------------------------------------------------------------------------------
                     quadrupole moment
 ------------------------------------------------------------------------------
  xx     189.269264    -214.225512     -24.956248
  yy     189.269264    -214.225512     -24.956248
  zz       0.000000     -29.314759     -29.314759
  xy       0.000000      -0.000000      -0.000000
  xz       0.000000       0.000000       0.000000
  yz       0.000000      -0.000000      -0.000000
 
     1/3  trace=     -26.409085
     anisotropy=       4.358511
 
 ==============================================================================
 
HOMO-LUMO Separation
 HOMO         :   -0.35068475 H =     -9.54262 eV
 LUMO         :    0.18805301 H =     +5.11719 eV
 HOMO-LUMO gap:    0.53873775 H =    +14.65981 eV
 
 ==============================================================================


    ------------------------------------------------------------------------
         total  cpu-time :   0.44 seconds
         total wall-time :   0.45 seconds
    ------------------------------------------------------------------------

   ****  dscf : all done  ****


    2019-07-09 09:19:49.439 

