
   OpenMP run-time library returned nthreads =  1
 operating system is UNIX !

 ridft (vejle) : TURBOMOLE rev. V7-4-initial-tag-708-g2666d45 compiled 2 Jul 2019 at 09:48:52
 Copyright (C) 2019 TURBOMOLE GmbH, Karlsruhe


    2019-07-02 15:42:01.555 



                                  r i d f t

                        DFT program with RI approximation 
                                for coulomb part 




                                                 
                                 References:     
                                                 
          TURBOMOLE:                             
              R. Ahlrichs, M. Baer, M. Haeser, H. Horn, and
              C. Koelmel
              Electronic structure calculations on workstation
              computers: the program system TURBOMOLE
              Chem. Phys. Lett. 162: 165 (1989)
          Density Functional:                              
              O. Treutler and R. Ahlrichs                      
              Efficient Molecular Numerical Integration Schemes
              J. Chem. Phys. 102: 346 (1995)                   
          Parallel Version:                                
              Performance of parallel TURBOMOLE for Density    
              Functional Calculations                          
              M. v. Arnim and R. Ahlrichs                      
              J. Comp. Chem. 19: 1746 (1998)                   
          RI-J Method:                                     
              Auxiliary Basis Sets to approximate Coulomb      
              Potentials                                       
              Chem. Phys. Lett. 240: 283 (1995)                
              K. Eichkorn, O. Treutler, H. Oehm, M. Haeser     
              and R. Ahlrichs                                  
              Chem. Phys. Lett. 242: 652 (1995)                
                                                           
              Auxiliary Basis Sets for Main Row Atoms and their
              Use to approximate Coulomb Potentials            
              K. Eichkorn, F. Weigend, O. Treutler and         
              R. Ahlrichs                                      
              Theo. Chem. Acc. 97: 119 (1997)                   
                                                           
              Accurate Coulomb-fitting basis sets for H to Rn 
              F. Weigend                                        
              Phys. Chem. Chem. Phys. 8: 1057 (2006)            
                                                           
          Multipole accelerated RI-J (MARI-J):             
              Fast evaluation of the Coulomb potential for     
              electron densities using multipole accelerated   
              resolution of identity approximation             
              M. Sierka, A. Hogekamp and R. Ahlrichs           
              J. Chem. Phys. 118: 9136 (2003)                  
          RI-JK Method:                                     
              A fully direct RI-HF algorithm: Implementation,
              optimised auxiliary basis sets, demonstration of
              accuracy and efficiency                         
              F. Weigend                                      
              Phys. Chem. Chem. Phys. 4: 4285 (2002)           
          Two-component HF and DFT with spin-orbit coupling:  
              Self-consistent treatment of spin-orbit         
              interactions with efficient Hartree-Fock and    
              density functional methods                      
              M. K. Armbruster, F. Weigend, C. van Wüllen and 
              W. Klopper                                      
              Phys. Chem. Chem. Phys. 10: 1748 (2008)         
          Two-component difference density and DIIS algorithm 
              Efficient two-component self-consistent field   
              procedures and gradients: implementation in     
              TURBOMOLE and application to Au20-              
              A. Baldes, F. Weigend                           
              Mol. Phys. 111: 2617 (2013)                     
          Relativistic all-electron 2c calculations           
              An efficient implementation of two-component    
              relativistic exact-decoupling methods for large 
              molecules                                       
              D. Peng, N. Middendorf, F. Weigend, M. Reiher   
              J. Chem. Phys. 138: 184105 (2013)               
          Finite nucleus model and SNSO approximation         
              Efficient implementation of one- and two-       
              component analytical energy gradients in exact  
              two-component theory                            
              Y. J. Franzke, N. Middendorf, F. Weigend        
              J. Chem. Phys. 148: 104110 (2018)               
                                         




              +--------------------------------------------------+
              |      general information about current run       |
              +--------------------------------------------------+

 

 DENSITY CONVERGENCE CHECK SWITCHED ON !
 SCF CONVERGENCE IF RMS(delta[D]) <     0.1000000000E-06

 A HF calculation using the RI-JK approximation will be carried out.
 Allocatable memory for RI due to $ricore (MB):                   500


              +--------------------------------------------------+
              | Atomic coordinate, charge and isotop information |
              +--------------------------------------------------+

                    atomic coordinates            atom    charge  isotop
          2.62524980    0.00000000    0.00000000    c      6.000     0
          1.31262490    2.27353302    0.00000000    c      6.000     0
         -1.31262490    2.27353302    0.00000000    c      6.000     0
         -2.62524980    0.00000000    0.00000000    c      6.000     0
         -1.31262490   -2.27353302    0.00000000    c      6.000     0
          1.31262490   -2.27353302    0.00000000    c      6.000     0
          4.66241737    0.00000000    0.00000000    h      1.000     0
          2.33120869    4.03777189    0.00000000    h      1.000     0
         -2.33120869    4.03777189    0.00000000    h      1.000     0
         -4.66241737    0.00000000    0.00000000    h      1.000     0
         -2.33120869   -4.03777189    0.00000000    h      1.000     0
          2.33120869   -4.03777189    0.00000000    h      1.000     0
 
       center of nuclear mass  :    0.00000000    0.00000000    0.00000000
       center of nuclear charge:    0.00000000    0.00000000    0.00000000

              +--------------------------------------------------+
              |               basis set information              |
              +--------------------------------------------------+

              we will work with the 1s 3p 5d 7f 9g ... basis set
              ...i.e. with spherical basis functions...

   type   atoms  prim   cont   basis
   ---------------------------------------------------------------------------
    c        6     77     57   def2-QZVP   [7s4p3d2f1g|15s8p3d2f1g]
    h        6     33     30   def2-QZVP   [4s3p2d1f|7s3p2d1f]
   ---------------------------------------------------------------------------
   total:   12    660    522
   ---------------------------------------------------------------------------

   total number of primitive shells          :   42
   total number of contracted shells         :  162
   total number of cartesian basis functions :  642
   total number of SCF-basis functions       :  522


 integral neglect threshold       :  0.52E-11
 integral storage threshold THIZE :  0.10E-04
 integral storage threshold THIME :         5

 RI-JK AUXILIARY BASIS SET information:

              we will work with the 1s 3p 5d 7f 9g ... basis set
              ...i.e. with spherical basis functions...

   type   atoms  prim   cont   basis
   ---------------------------------------------------------------------------
    c        6     97     75   def2-QZVP   [10s8p5d1f1g|14s10p6d2f1g]
    h        6     20     18   def2-QZVP   [2s2p2d|4s2p2d]
   ---------------------------------------------------------------------------
   total:   12    702    558
   ---------------------------------------------------------------------------

   total number of primitive shells          :   41
   total number of contracted shells         :  186
   total number of cartesian basis functions :  654
   total number of SCF-basis functions       :  558


 symmetry group of the molecule :   c1 

 the group has the following generators :
   c1(z)

    1 symmetry operations found

 there are 1 real representations :   a   

 maximum number of shells which are related by symmetry :  1


 biggest AO integral is expected to be     5.262544080

          ------------------------
          nuclear repulsion energy  :   204.360444203    
          ------------------------


         -----------------
         -S,T+V- integrals
         -----------------

 1e-integrals will be neglected if expon. factor < 0.520555E-12
 
   Difference densities algorithm switched on.
   The maximal number of linear combinations of
   difference densities is                    20 .

 DIIS switched on: error vector is FDS-SDF
 Max. Iterations for DIIS is     :   5
 DIIS matrix (see manual) 
    Scaling factor of diagonals  :  1.200
    threshold for scaling factor :  0.000

 scf convergence criterion : increment of total energy < .1000000D-06
                  and increment of one-electron energy < .1000000D-03

 MOs are in ASCII format !


    mo occupation :
   irrep   mo's   occupied
    a      522       21
 
 number of basis functions   :   522
 number of occupied orbitals :    21
 

 reading orbital data $scfmo  from file mos
 orbital characterization : expanded
 virtual MOs provided and orthogonalized by Cholesky decomposition

 automatic virtual orbital shift switched on 
      shift if e(lumo)-e(homo) < 0.10000000    

  
           ------------------------
               RI-JK - INFORMATION
           ------------------------
 Contributions to RI integral batches: 
  neglected integral batches:                  1416
  direct contribution:                        10028
  memory contribution:                  1759
 Memory core needed for (P|Q) and Cholesky      3 MByte
 Memory core minimum needed except of (P|Q)     1 MByte
 Total minimum memory core needed (sum)         3 MByte
  
 ****************************************
 Memory allocated for RI-J    38 MByte
 ****************************************
                                            
 total memory allocated for calculation of  (Q|P)**(-1/2) :    4 MiB

  forming (P|Q)**(-1/2) 
 eigenvalues of original matrix 
 smallest =0.2566687500214E-07  largest = 31.63297462247    
  The symmetry information takes                      1  MB

 DSCF restart information will be dumped onto file mos


 Starting SCF iterations

 
 BLOCKING OF MOS FOR RI-K
 
 
 occupied MOs partitioned into blocks of maximum length 21
 this requires 58 MiB core memory.
 
            MULTIPLE PASS Statistics 
 ----------------------------------------------------
  pass       irrep     lambda      batch : MO  to  MO
 ----------------------------------------------------
   1       1  ->  1    1  -> 21             1  ->  21



 ITERATION  ENERGY          1e-ENERGY        2e-ENERGY     RMS[dD(SAO)]   TOL
   1  -229.96478934098    -705.80580002     271.48056648    0.000D+00 0.519D-11
                           RI-K = -32.2063724244     Coul =  303.686938905    
                            current damping = 0.300
 
          max. resid. norm for Fia-block=  5.683D-01 for orbital      7a         
          max. resid. fock norm         =  5.682D+01 for orbital    470a         

 ITERATION  ENERGY          1e-ENERGY        2e-ENERGY     RMS[dD(SAO)]   TOL
   2  -230.68916017260    -714.04055068     278.99094630    0.540D-02 0.447D-11
                           RI-K = -33.0222509610     Coul =  312.013197261    
                            current damping = 0.250
 
          Norm of current diis error:  2.3520    
          max. resid. norm for Fia-block=  1.025D-01 for orbital      7a         
          max. resid. fock norm         =  1.435D-01 for orbital     77a         

 ITERATION  ENERGY          1e-ENERGY        2e-ENERGY     RMS[dD(SAO)]   TOL
   3  -230.78125044904    -714.42153083     279.27983618    0.201D-02 0.286D-11
                           RI-K = -33.1876426888     Coul =  312.467478864    
                            current damping = 0.100
 
          Norm of current diis error: 0.78242    
          max. resid. norm for Fia-block=  3.607D-02 for orbital      7a         
          max. resid. fock norm         =  3.903D-02 for orbital      7a         

 ITERATION  ENERGY          1e-ENERGY        2e-ENERGY     RMS[dD(SAO)]   TOL
   4  -230.79569447777    -715.25063895     280.09450027    0.693D-03 0.241D-11
                           RI-K = -33.2876804841     Coul =  313.382180750    
                            current damping = 0.100
 
          Norm of current diis error: 0.13921    
          max. resid. norm for Fia-block=  8.496D-03 for orbital     20a         
          max. resid. fock norm         =  8.496D-03 for orbital     20a         

 ITERATION  ENERGY          1e-ENERGY        2e-ENERGY     RMS[dD(SAO)]   TOL
   5  -230.79660091572    -715.17823785     280.02119273    0.124D-03 0.225D-11
                           RI-K = -33.2936806478     Coul =  313.314873377    
                            current damping = 0.150
 
          Norm of current diis error: 0.43601E-01
          max. resid. norm for Fia-block=  2.522D-03 for orbital     14a         
          max. resid. fock norm         =  2.522D-03 for orbital     14a         
          mo-orthogonalization: Cholesky decomposition

 ITERATION  ENERGY          1e-ENERGY        2e-ENERGY     RMS[dD(SAO)]   TOL
   6  -230.79669551396    -715.22026731     280.06312759    0.308D-04 0.212D-11
                           RI-K = -33.2977949848     Coul =  313.360922575    
                            current damping = 0.200
 
          Norm of current diis error: 0.12381E-01
          max. resid. norm for Fia-block=  1.124D-03 for orbital     21a         
          max. resid. fock norm         =  1.124D-03 for orbital     21a         

 ITERATION  ENERGY          1e-ENERGY        2e-ENERGY     RMS[dD(SAO)]   TOL
   7  -230.79670723687    -715.21602744     280.05887600    0.123D-04 0.200D-11
                           RI-K = -33.2978984962     Coul =  313.356774501    
                            current damping = 0.250
 
          Norm of current diis error: 0.42546E-02
          max. resid. norm for Fia-block=  3.846D-04 for orbital     17a         
          max. resid. fock norm         =  3.846D-04 for orbital     17a         

 ITERATION  ENERGY          1e-ENERGY        2e-ENERGY     RMS[dD(SAO)]   TOL
   8  -230.79670854207    -715.21666119     280.05950845    0.442D-05 0.191D-11
                           RI-K = -33.2979718399     Coul =  313.357480290    
                            current damping = 0.300
 
          Norm of current diis error: 0.13275E-02
          max. resid. norm for Fia-block=  1.295D-04 for orbital     17a         
          max. resid. fock norm         =  1.295D-04 for orbital     17a         

 ITERATION  ENERGY          1e-ENERGY        2e-ENERGY     RMS[dD(SAO)]   TOL
   9  -230.79670866064    -715.21659968     280.05944682    0.130D-05 0.182D-11
                           RI-K = -33.2979568548     Coul =  313.357403676    
                            current damping = 0.350
 
          Norm of current diis error: 0.43119E-03
          max. resid. norm for Fia-block=  4.043D-05 for orbital     17a         
          max. resid. fock norm         =  4.043D-05 for orbital     17a         

 ENERGY & DENSITY CONVERGED !


 ITERATION  ENERGY          1e-ENERGY        2e-ENERGY     RMS[dD(SAO)]   TOL
  10  -230.79670867157    -715.21663094     280.05947807    0.368D-06 0.174D-11
                           RI-K = -33.2979497534     Coul =  313.357427820    
                            current damping = 0.400
 
          Norm of current diis error: 0.14466E-03
          max. resid. norm for Fia-block=  1.310D-05 for orbital     17a         
          max. resid. fock norm         =  1.310D-05 for orbital     17a         

 End of SCF iterations

   convergence criteria satisfied after    10 iterations


                  ------------------------------------------ 
                 |  total energy      =   -230.79670867157  |
                  ------------------------------------------ 
                 :  kinetic energy    =    230.61093173046  :
                 :  potential energy  =   -461.40764040203  :
                 :  virial theorem    =      1.99919506243  :
                 :  wavefunction norm =      1.00000000000  :
                  .......................................... 


 orbitals $scfmo  will be written to file mos

    irrep                 17a         18a         19a         20a         21a   
 eigenvalues H         -0.50409    -0.49515    -0.49515    -0.33738    -0.33738
            eV         -13.7171    -13.4738    -13.4738     -9.1807     -9.1807
 occupation              2.0000      2.0000      2.0000      2.0000      2.0000

    irrep                 22a         23a         24a         25a         26a   
 eigenvalues H          0.11191     0.11864     0.11864     0.12461     0.12461
            eV           3.0452      3.2283      3.2283      3.3910      3.3910
 
 
 
 
 ==============================================================================
                           electrostatic moments
 ==============================================================================

 reference point for electrostatic moments:    0.00000   0.00000   0.00000

 
              nuc           elec       ->  total
 ------------------------------------------------------------------------------
                          charge      
 ------------------------------------------------------------------------------
          42.000000     -42.000000       0.000000
 
 ------------------------------------------------------------------------------
                       dipole moment  
 ------------------------------------------------------------------------------
   x      -0.000000      -0.000000      -0.000000
   y       0.000000       0.000000       0.000000
   z       0.000000       0.000000       0.000000
 
   | dipole moment | =     0.0000 a.u. =     0.0000 debye 
 
 ------------------------------------------------------------------------------
                     quadrupole moment
 ------------------------------------------------------------------------------
  xx     189.269264    -213.045531     -23.776267
  yy     189.269264    -213.045531     -23.776267
  zz       0.000000     -30.316253     -30.316253
  xy       0.000000      -0.000000      -0.000000
  xz       0.000000       0.000000       0.000000
  yz       0.000000      -0.000000      -0.000000
 
     1/3  trace=     -25.956262
     anisotropy=       6.539986
 
 ==============================================================================
 
HOMO-LUMO Separation
 HOMO         :   -0.33738357 H =     -9.18068 eV
 LUMO         :    0.11190724 H =     +3.04515 eV
 HOMO-LUMO gap:    0.44929080 H =    +12.22583 eV
 
 ==============================================================================


    ------------------------------------------------------------------------
         total  cpu-time :  41.23 seconds
         total wall-time :  41.24 seconds
    ------------------------------------------------------------------------

   ****  ridft : all done  ****


    2019-07-02 15:42:42.790 

